{
  "type": "service_account",
  "project_id": "pay4me-212016",
  "private_key_id": "67dc0ed89dfbac240f3a8b88479bbceb48b1913b",
  "private_key": "-----BEGIN PRIVATE KEY-----\nMIIEvQIBADANBgkqhkiG9w0BAQEFAASCBKcwggSjAgEAAoIBAQDR91Y80xSxEOLY\nyppg/NktmkWtUH3BU7Hh7XfL0eYE9nRcOMjQ1busm+gdxV4rzYVFF5gVaWojxI/m\n8nEgLTSXe+WiZZIrnIQZSYlgn+ipAGreHUhHzoBEC8jeuQ38fBo9xFj4P2243Cdn\n2GThYqfxhZ2UviHog0SwlLuVLdgZa0Anb6BMKUvxaeOSuq9e1EnhzTIc7HGaJhnS\nntY/IHD+2gDZzXmvG8cYwTqfygjhCBM9sct+foMAn/0mLA+KLpWOGw9rLyZoM4GI\nUfzRFsVJPqAMLizZVB3l27YTC6vV2XxC2RS0yeNDpOU4gDOVPMehgwwBwsXuoHdp\nj29aW3aVAgMBAAECggEABe1g9xnGBgNHcB4fZ7kDlYIQe6Z1IlxvPgTtjT4D67nH\nCk/FECt/HziN1Sym7lQgh2qK2Hc6b+o4M2lpME1uZGSy6cJ1yFA5uhqwFjT1b7NA\nu7v2YtE4ID5NQZ0A7CgsYngqQyR2lRHL9VEadJ1hHH7si6V8FhEB7afejW/MSlgG\nXIKt7X/qzoB07KFl77fUtLqt6HJQewr3fdQHe75Xu3caIqhu+htg9Aqs9S0QilaG\ntt2OWbTJmpnjZno6pYlQuBi1a/q+P1t2Ke1kpY/IF7NJTebyBjOVRDfhjWqDabYo\ngVXMKA+NevTjXQgRQo6cySQWUJY7+YQbsVJfYEih+QKBgQD7aJMCf7/5Ru0cmgW7\nxucA4wMeLRMqABeXk5OX7/UM/+ajYnuEfI3GTfTCgv8Z9nWRO5yjupDKf2D4Yfg5\nm1rWOOMuZMFlm5nrzZBSY19+ECuf8KD9VsaP3bTW16gsJGzntUYtPpoJ8dzS7lsa\ndkHK6EOQv4z8CrdCpp60kJNWGQKBgQDVzQEzidpRrIm/kWzQ2JE+Wvj9d/bykZyZ\nxluDhtqPwnV0oWkMGp/v4CvAAXvzUrYP728l6DtxZaFmqQR709OnhaKtPIJoidpC\naQdBtc5jWX48+hDDvm4gLikkB/CR3pHaZbQvDeUBx87gZ/Nb8AJarYbpIvozCqHV\nuJaHnXGb3QKBgGRgTkGzK7ylGspOnHdqZJSwDnCf4oTkYIb+PvFsttQn37ff/Bzb\nded0/IIktyFwi2Qe/t1IAcM3tEm3I9osMspREDNXuveMdpn1Cug6EMhOQHytIDnF\nyaVrCWa118k4CdtBPvGViv7peBcnX2xjRsVykndaYznGNYEA8WB6ULkRAoGAb1UM\njhj33dX5+Q6yWmKb55uZ0uu4ZYIbyRu4pdoAUCIT5cLzn8Dxjgju31ImiIOGmO+2\nskenRJqGnJ3g3tZkffShzJIY2nUGedSVWcthiOyeRwR03Gl6kTlYZRHZXSxISTDy\nzhnvKakxejvHRxXJNAzultKG9TNRKKixgjcjZOUCgYEAuPSzUzkYEAJWyrg54MXB\nOQp0y7djoHfsd1viIOAx+su+UMHAaH+YxqrCJ3Q3C11CRXjF9L3bMdjAACSXHOKr\nNPzM16KuAOyBaxFXk6UiCmKmdDvsi85i0tooGsFAYtdhrql0q4eW5+ToAId74Zh0\nUxxoIQkUlDPNlEP9Ky9+n/k=\n-----END PRIVATE KEY-----\n",
  "client_email": "getsubscribes@pay4me-212016.iam.gserviceaccount.com",
  "client_id": "118236857712104947302",
  "auth_uri": "https://accounts.google.com/o/oauth2/auth",
  "token_uri": "https://accounts.google.com/o/oauth2/token",
  "auth_provider_x509_cert_url": "https://www.googleapis.com/oauth2/v1/certs",
  "client_x509_cert_url": "https://www.googleapis.com/robot/v1/metadata/x509/getsubscribes%40pay4me-212016.iam.gserviceaccount.com"
}
